<?xml version="1.0" encoding="iso-8859-1"?>
<!-- Generator: Adobe Illustrator 19.0.0, SVG Export Plug-In . SVG Version: 6.00 Build 0)  -->
<svg version="1.1" id="Layer_1" xmlns="http://www.w3.org/2000/svg" xmlns:xlink="http://www.w3.org/1999/xlink" x="0px" y="0px"
	 viewBox="0 0 512 512" style="enable-background:new 0 0 512 512;" xml:space="preserve"  fill="#003d9c">
<g>
	<g>
		<path d="M452.422,70.25l-64-64L382.172,0h-8.844H74.672H53.328v21.336v469.32V512h21.344h362.656h21.344v-21.344V85.336V76.5
			L452.422,70.25z M384,32l42.672,42.664H384V32z M437.328,490.656H74.672V21.336h288V96h74.656V490.656z"/>
	</g>
</g>
<g>
	<g>
		<path d="M222.984,78.227l-37.266,65.211l-19.625-32.703L117.328,192h40.641h56.89H288L222.984,78.227z M170.156,170.664h-15.14
			l11.078-18.469l7.484,12.477L170.156,170.664z M194.734,170.664l28.25-49.445l28.25,49.445H194.734z"/>
	</g>
</g>
<g>
	<g>
		<path d="M384,277.344H128c-5.891,0-10.672,4.766-10.672,10.656s4.781,10.656,10.672,10.656h256
			c5.891,0,10.672-4.766,10.672-10.656S389.891,277.344,384,277.344z"/>
	</g>
</g>
<g>
	<g>
		<path d="M384,341.344H128c-5.891,0-10.672,4.766-10.672,10.656s4.781,10.656,10.672,10.656h256
			c5.891,0,10.672-4.766,10.672-10.656S389.891,341.344,384,341.344z"/>
	</g>
</g>
<g>
	<g>
		<path d="M266.672,405.344H128c-5.891,0-10.672,4.766-10.672,10.656s4.781,10.656,10.672,10.656h138.672
			c5.891,0,10.656-4.766,10.656-10.656S272.562,405.344,266.672,405.344z"/>
	</g>
</g>
<g>
</g>
<g>
</g>
<g>
</g>
<g>
</g>
<g>
</g>
<g>
</g>
<g>
</g>
<g>
</g>
<g>
</g>
<g>
</g>
<g>
</g>
<g>
</g>
<g>
</g>
<g>
</g>
<g>
</g>
</svg>
